%YAML 1.1
%TAG !u! tag:unity3d.com,2011:
--- !u!1 &4105362945620786469
GameObject:
  m_ObjectHideFlags: 0
  m_CorrespondingSourceObject: {fileID: 0}
  m_PrefabInstance: {fileID: 0}
  m_PrefabAsset: {fileID: 0}
  serializedVersion: 6
  m_Component:
  - component: {fileID: 4105362945620786471}
  - component: {fileID: 4105362945620786468}
  m_Layer: 0
  m_Name: Wizard
  m_TagString: Untagged
  m_Icon: {fileID: 0}
  m_NavMeshLayer: 0
  m_StaticEditorFlags: 0
  m_IsActive: 1
--- !u!4 &4105362945620786471
Transform:
  m_ObjectHideFlags: 0
  m_CorrespondingSourceObject: {fileID: 0}
  m_PrefabInstance: {fileID: 0}
  m_PrefabAsset: {fileID: 0}
  m_GameObject: {fileID: 4105362945620786469}
  m_LocalRotation: {x: 0, y: 0, z: 0, w: 1}
  m_LocalPosition: {x: 0, y: 0, z: 0}
  m_LocalScale: {x: 1, y: 1, z: 1}
  m_Children:
  - {fileID: 7478621442821964538}
  m_Father: {fileID: 0}
  m_RootOrder: 0
  m_LocalEulerAnglesHint: {x: 0, y: 0, z: 0}
--- !u!95 &4105362945620786468
Animator:
  serializedVersion: 5
  m_ObjectHideFlags: 0
  m_CorrespondingSourceObject: {fileID: 0}
  m_PrefabInstance: {fileID: 0}
  m_PrefabAsset: {fileID: 0}
  m_GameObject: {fileID: 4105362945620786469}
  m_Enabled: 1
  m_Avatar: {fileID: 0}
  m_Controller: {fileID: 9100000, guid: fe79526b5cda9684bbfddbfe18a7f75c, type: 2}
  m_CullingMode: 0
  m_UpdateMode: 0
  m_ApplyRootMotion: 0
  m_LinearVelocityBlending: 0
  m_StabilizeFeet: 0
  m_WarningMessage: 
  m_HasTransformHierarchy: 1
  m_AllowConstantClipSamplingOptimization: 1
  m_KeepAnimatorStateOnDisable: 0
--- !u!1001 &4105362946132217688
PrefabInstance:
  m_ObjectHideFlags: 0
  serializedVersion: 2
  m_Modification:
    m_TransformParent: {fileID: 4105362945620786471}
    m_Modifications:
    - target: {fileID: -9032988422121773977, guid: dde2588f5e0bc7b4ab407c1ae99bd5c1, type: 3}
      propertyPath: m_Bounds.m_Center.x
      value: -0.0024345517
      objectReference: {fileID: 0}
    - target: {fileID: -9032988422121773977, guid: dde2588f5e0bc7b4ab407c1ae99bd5c1, type: 3}
      propertyPath: m_Bounds.m_Center.y
      value: 0.0009304881
      objectReference: {fileID: 0}
    - target: {fileID: -9032988422121773977, guid: dde2588f5e0bc7b4ab407c1ae99bd5c1, type: 3}
      propertyPath: m_Bounds.m_Extent.x
      value: 0.71256495
      objectReference: {fileID: 0}
    - target: {fileID: -9032988422121773977, guid: dde2588f5e0bc7b4ab407c1ae99bd5c1, type: 3}
      propertyPath: m_Bounds.m_Extent.y
      value: 0.70407003
      objectReference: {fileID: 0}
    - target: {fileID: -9010741035754725001, guid: dde2588f5e0bc7b4ab407c1ae99bd5c1, type: 3}
      propertyPath: m_Color.b
      value: 1
      objectReference: {fileID: 0}
    - target: {fileID: -9010741035754725001, guid: dde2588f5e0bc7b4ab407c1ae99bd5c1, type: 3}
      propertyPath: m_Color.g
      value: 1
      objectReference: {fileID: 0}
    - target: {fileID: -9010741035754725001, guid: dde2588f5e0bc7b4ab407c1ae99bd5c1, type: 3}
      propertyPath: m_Color.r
      value: 1
      objectReference: {fileID: 0}
    - target: {fileID: -8809715142370363927, guid: dde2588f5e0bc7b4ab407c1ae99bd5c1, type: 3}
      propertyPath: m_Color.b
      value: 1
      objectReference: {fileID: 0}
    - target: {fileID: -8809715142370363927, guid: dde2588f5e0bc7b4ab407c1ae99bd5c1, type: 3}
      propertyPath: m_Color.g
      value: 1
      objectReference: {fileID: 0}
    - target: {fileID: -8809715142370363927, guid: dde2588f5e0bc7b4ab407c1ae99bd5c1, type: 3}
      propertyPath: m_Color.r
      value: 1
      objectReference: {fileID: 0}
    - target: {fileID: -8775229122039254988, guid: dde2588f5e0bc7b4ab407c1ae99bd5c1, type: 3}
      propertyPath: m_Color.b
      value: 1
      objectReference: {fileID: 0}
    - target: {fileID: -8775229122039254988, guid: dde2588f5e0bc7b4ab407c1ae99bd5c1, type: 3}
      propertyPath: m_Color.g
      value: 1
      objectReference: {fileID: 0}
    - target: {fileID: -8775229122039254988, guid: dde2588f5e0bc7b4ab407c1ae99bd5c1, type: 3}
      propertyPath: m_Color.r
      value: 1
      objectReference: {fileID: 0}
    - target: {fileID: -8627362108530304319, guid: dde2588f5e0bc7b4ab407c1ae99bd5c1, type: 3}
      propertyPath: m_LocalPosition.x
      value: 0.496056
      objectReference: {fileID: 0}
    - target: {fileID: -8627362108530304319, guid: dde2588f5e0bc7b4ab407c1ae99bd5c1, type: 3}
      propertyPath: m_LocalPosition.y
      value: 0.00000007938481
      objectReference: {fileID: 0}
    - target: {fileID: -8627362108530304319, guid: dde2588f5e0bc7b4ab407c1ae99bd5c1, type: 3}
      propertyPath: m_LocalRotation.w
      value: 0.9999644
      objectReference: {fileID: 0}
    - target: {fileID: -8627362108530304319, guid: dde2588f5e0bc7b4ab407c1ae99bd5c1, type: 3}
      propertyPath: m_LocalRotation.x
      value: 0
      objectReference: {fileID: 0}
    - target: {fileID: -8627362108530304319, guid: dde2588f5e0bc7b4ab407c1ae99bd5c1, type: 3}
      propertyPath: m_LocalRotation.y
      value: 0
      objectReference: {fileID: 0}
    - target: {fileID: -8627362108530304319, guid: dde2588f5e0bc7b4ab407c1ae99bd5c1, type: 3}
      propertyPath: m_LocalRotation.z
      value: -0.008442057
      objectReference: {fileID: 0}
    - target: {fileID: -8627362108530304319, guid: dde2588f5e0bc7b4ab407c1ae99bd5c1, type: 3}
      propertyPath: m_LocalEulerAnglesHint.z
      value: 0
      objectReference: {fileID: 0}
    - target: {fileID: -8087842505198109513, guid: dde2588f5e0bc7b4ab407c1ae99bd5c1, type: 3}
      propertyPath: m_LocalRotation.w
      value: 0.29384363
      objectReference: {fileID: 0}
    - target: {fileID: -8087842505198109513, guid: dde2588f5e0bc7b4ab407c1ae99bd5c1, type: 3}
      propertyPath: m_LocalRotation.x
      value: 0
      objectReference: {fileID: 0}
    - target: {fileID: -8087842505198109513, guid: dde2588f5e0bc7b4ab407c1ae99bd5c1, type: 3}
      propertyPath: m_LocalRotation.y
      value: 0
      objectReference: {fileID: 0}
    - target: {fileID: -8087842505198109513, guid: dde2588f5e0bc7b4ab407c1ae99bd5c1, type: 3}
      propertyPath: m_LocalRotation.z
      value: 0.9558536
      objectReference: {fileID: 0}
    - target: {fileID: -8087842505198109513, guid: dde2588f5e0bc7b4ab407c1ae99bd5c1, type: 3}
      propertyPath: m_LocalEulerAnglesHint.z
      value: 0
      objectReference: {fileID: 0}
    - target: {fileID: -7455080924735035837, guid: dde2588f5e0bc7b4ab407c1ae99bd5c1, type: 3}
      propertyPath: m_Bounds.m_Center.x
      value: 0.00000020861626
      objectReference: {fileID: 0}
    - target: {fileID: -7455080924735035837, guid: dde2588f5e0bc7b4ab407c1ae99bd5c1, type: 3}
      propertyPath: m_Bounds.m_Center.y
      value: -0.0024347901
      objectReference: {fileID: 0}
    - target: {fileID: -7455080924735035837, guid: dde2588f5e0bc7b4ab407c1ae99bd5c1, type: 3}
      propertyPath: m_Bounds.m_Extent.x
      value: 0.27499998
      objectReference: {fileID: 0}
    - target: {fileID: -7455080924735035837, guid: dde2588f5e0bc7b4ab407c1ae99bd5c1, type: 3}
      propertyPath: m_Bounds.m_Extent.y
      value: 0.43756503
      objectReference: {fileID: 0}
    - target: {fileID: -7185160353364698954, guid: dde2588f5e0bc7b4ab407c1ae99bd5c1, type: 3}
      propertyPath: m_Bounds.m_Center.x
      value: 0.3599253
      objectReference: {fileID: 0}
    - target: {fileID: -7185160353364698954, guid: dde2588f5e0bc7b4ab407c1ae99bd5c1, type: 3}
      propertyPath: m_Bounds.m_Center.y
      value: 0.0029950738
      objectReference: {fileID: 0}
    - target: {fileID: -7185160353364698954, guid: dde2588f5e0bc7b4ab407c1ae99bd5c1, type: 3}
      propertyPath: m_Bounds.m_Extent.x
      value: 0.33507523
      objectReference: {fileID: 0}
    - target: {fileID: -7185160353364698954, guid: dde2588f5e0bc7b4ab407c1ae99bd5c1, type: 3}
      propertyPath: m_Bounds.m_Extent.y
      value: 0.45299512
      objectReference: {fileID: 0}
    - target: {fileID: -7153855274040808360, guid: dde2588f5e0bc7b4ab407c1ae99bd5c1, type: 3}
      propertyPath: m_Color.b
      value: 1
      objectReference: {fileID: 0}
    - target: {fileID: -7153855274040808360, guid: dde2588f5e0bc7b4ab407c1ae99bd5c1, type: 3}
      propertyPath: m_Color.g
      value: 1
      objectReference: {fileID: 0}
    - target: {fileID: -7153855274040808360, guid: dde2588f5e0bc7b4ab407c1ae99bd5c1, type: 3}
      propertyPath: m_Color.r
      value: 1
      objectReference: {fileID: 0}
    - target: {fileID: -6989524715881345184, guid: dde2588f5e0bc7b4ab407c1ae99bd5c1, type: 3}
      propertyPath: m_LocalRotation.w
      value: 0.99995625
      objectReference: {fileID: 0}
    - target: {fileID: -6989524715881345184, guid: dde2588f5e0bc7b4ab407c1ae99bd5c1, type: 3}
      propertyPath: m_LocalRotation.x
      value: 0
      objectReference: {fileID: 0}
    - target: {fileID: -6989524715881345184, guid: dde2588f5e0bc7b4ab407c1ae99bd5c1, type: 3}
      propertyPath: m_LocalRotation.y
      value: 0
      objectReference: {fileID: 0}
    - target: {fileID: -6989524715881345184, guid: dde2588f5e0bc7b4ab407c1ae99bd5c1, type: 3}
      propertyPath: m_LocalRotation.z
      value: 0.009358826
      objectReference: {fileID: 0}
    - target: {fileID: -6989524715881345184, guid: dde2588f5e0bc7b4ab407c1ae99bd5c1, type: 3}
      propertyPath: m_LocalEulerAnglesHint.z
      value: 0
      objectReference: {fileID: 0}
    - target: {fileID: -6777418915248604017, guid: dde2588f5e0bc7b4ab407c1ae99bd5c1, type: 3}
      propertyPath: m_Bounds.m_Center.x
      value: 0.002280295
      objectReference: {fileID: 0}
    - target: {fileID: -6777418915248604017, guid: dde2588f5e0bc7b4ab407c1ae99bd5c1, type: 3}
      propertyPath: m_Bounds.m_Center.y
      value: -0.00000071525574
      objectReference: {fileID: 0}
    - target: {fileID: -6777418915248604017, guid: dde2588f5e0bc7b4ab407c1ae99bd5c1, type: 3}
      propertyPath: m_Bounds.m_Extent.x
      value: 0.6195901
      objectReference: {fileID: 0}
    - target: {fileID: -6739627084866504476, guid: dde2588f5e0bc7b4ab407c1ae99bd5c1, type: 3}
      propertyPath: m_LocalPosition.x
      value: 0.48447368
      objectReference: {fileID: 0}
    - target: {fileID: -6739627084866504476, guid: dde2588f5e0bc7b4ab407c1ae99bd5c1, type: 3}
      propertyPath: m_LocalPosition.y
      value: 0.31985363
      objectReference: {fileID: 0}
    - target: {fileID: -6739627084866504476, guid: dde2588f5e0bc7b4ab407c1ae99bd5c1, type: 3}
      propertyPath: m_LocalRotation.w
      value: 0.29710922
      objectReference: {fileID: 0}
    - target: {fileID: -6739627084866504476, guid: dde2588f5e0bc7b4ab407c1ae99bd5c1, type: 3}
      propertyPath: m_LocalRotation.x
      value: 0
      objectReference: {fileID: 0}
    - target: {fileID: -6739627084866504476, guid: dde2588f5e0bc7b4ab407c1ae99bd5c1, type: 3}
      propertyPath: m_LocalRotation.z
      value: 0.9548435
      objectReference: {fileID: 0}
    - target: {fileID: -6739627084866504476, guid: dde2588f5e0bc7b4ab407c1ae99bd5c1, type: 3}
      propertyPath: m_LocalEulerAnglesHint.z
      value: 0
      objectReference: {fileID: 0}
    - target: {fileID: -6613458469751989522, guid: dde2588f5e0bc7b4ab407c1ae99bd5c1, type: 3}
      propertyPath: m_Bounds.m_Center.x
      value: -0.00000020861626
      objectReference: {fileID: 0}
    - target: {fileID: -6613458469751989522, guid: dde2588f5e0bc7b4ab407c1ae99bd5c1, type: 3}
      propertyPath: m_Bounds.m_Center.y
      value: 0
      objectReference: {fileID: 0}
    - target: {fileID: -6613458469751989522, guid: dde2588f5e0bc7b4ab407c1ae99bd5c1, type: 3}
      propertyPath: m_Bounds.m_Extent.x
      value: 0.20999998
      objectReference: {fileID: 0}
    - target: {fileID: -6613458469751989522, guid: dde2588f5e0bc7b4ab407c1ae99bd5c1, type: 3}
      propertyPath: m_Bounds.m_Extent.y
      value: 1.6049999
      objectReference: {fileID: 0}
    - target: {fileID: -5280326212039452589, guid: dde2588f5e0bc7b4ab407c1ae99bd5c1, type: 3}
      propertyPath: m_LocalPosition.x
      value: 0.45597324
      objectReference: {fileID: 0}
    - target: {fileID: -5280326212039452589, guid: dde2588f5e0bc7b4ab407c1ae99bd5c1, type: 3}
      propertyPath: m_LocalPosition.y
      value: -0.14192814
      objectReference: {fileID: 0}
    - target: {fileID: -5280326212039452589, guid: dde2588f5e0bc7b4ab407c1ae99bd5c1, type: 3}
      propertyPath: m_LocalRotation.w
      value: 0.18416297
      objectReference: {fileID: 0}
    - target: {fileID: -5280326212039452589, guid: dde2588f5e0bc7b4ab407c1ae99bd5c1, type: 3}
      propertyPath: m_LocalRotation.x
      value: 0
      objectReference: {fileID: 0}
    - target: {fileID: -5280326212039452589, guid: dde2588f5e0bc7b4ab407c1ae99bd5c1, type: 3}
      propertyPath: m_LocalRotation.z
      value: -0.98289573
      objectReference: {fileID: 0}
    - target: {fileID: -5280326212039452589, guid: dde2588f5e0bc7b4ab407c1ae99bd5c1, type: 3}
      propertyPath: m_LocalEulerAnglesHint.z
      value: 0
      objectReference: {fileID: 0}
    - target: {fileID: -4675888759428452908, guid: dde2588f5e0bc7b4ab407c1ae99bd5c1, type: 3}
      propertyPath: m_Bounds.m_Center.x
      value: -0.002170205
      objectReference: {fileID: 0}
    - target: {fileID: -4675888759428452908, guid: dde2588f5e0bc7b4ab407c1ae99bd5c1, type: 3}
      propertyPath: m_Bounds.m_Center.y
      value: 0.0015249848
      objectReference: {fileID: 0}
    - target: {fileID: -4675888759428452908, guid: dde2588f5e0bc7b4ab407c1ae99bd5c1, type: 3}
      propertyPath: m_Bounds.m_Extent.x
      value: 0.24774006
      objectReference: {fileID: 0}
    - target: {fileID: -3451688285053055496, guid: dde2588f5e0bc7b4ab407c1ae99bd5c1, type: 3}
      propertyPath: m_LocalRotation.w
      value: 0.65980107
      objectReference: {fileID: 0}
    - target: {fileID: -3451688285053055496, guid: dde2588f5e0bc7b4ab407c1ae99bd5c1, type: 3}
      propertyPath: m_LocalRotation.x
      value: 0
      objectReference: {fileID: 0}
    - target: {fileID: -3451688285053055496, guid: dde2588f5e0bc7b4ab407c1ae99bd5c1, type: 3}
      propertyPath: m_LocalRotation.y
      value: 0
      objectReference: {fileID: 0}
    - target: {fileID: -3451688285053055496, guid: dde2588f5e0bc7b4ab407c1ae99bd5c1, type: 3}
      propertyPath: m_LocalRotation.z
      value: -0.7514404
      objectReference: {fileID: 0}
    - target: {fileID: -3451688285053055496, guid: dde2588f5e0bc7b4ab407c1ae99bd5c1, type: 3}
      propertyPath: m_LocalEulerAnglesHint.z
      value: 0
      objectReference: {fileID: 0}
    - target: {fileID: -2540685404709959581, guid: dde2588f5e0bc7b4ab407c1ae99bd5c1, type: 3}
      propertyPath: m_LocalPosition.x
      value: 0.47670346
      objectReference: {fileID: 0}
    - target: {fileID: -2540685404709959581, guid: dde2588f5e0bc7b4ab407c1ae99bd5c1, type: 3}
      propertyPath: m_LocalPosition.y
      value: -0.22062404
      objectReference: {fileID: 0}
    - target: {fileID: -2540685404709959581, guid: dde2588f5e0bc7b4ab407c1ae99bd5c1, type: 3}
      propertyPath: m_LocalRotation.w
      value: 0.033790674
      objectReference: {fileID: 0}
    - target: {fileID: -2540685404709959581, guid: dde2588f5e0bc7b4ab407c1ae99bd5c1, type: 3}
      propertyPath: m_LocalRotation.x
      value: 0
      objectReference: {fileID: 0}
    - target: {fileID: -2540685404709959581, guid: dde2588f5e0bc7b4ab407c1ae99bd5c1, type: 3}
      propertyPath: m_LocalRotation.y
      value: 0
      objectReference: {fileID: 0}
    - target: {fileID: -2540685404709959581, guid: dde2588f5e0bc7b4ab407c1ae99bd5c1, type: 3}
      propertyPath: m_LocalRotation.z
      value: -0.999429
      objectReference: {fileID: 0}
    - target: {fileID: -2540685404709959581, guid: dde2588f5e0bc7b4ab407c1ae99bd5c1, type: 3}
      propertyPath: m_LocalEulerAnglesHint.z
      value: 0
      objectReference: {fileID: 0}
    - target: {fileID: -2364307010229973598, guid: dde2588f5e0bc7b4ab407c1ae99bd5c1, type: 3}
      propertyPath: m_RootOrder
      value: 0
      objectReference: {fileID: 0}
    - target: {fileID: -2364307010229973598, guid: dde2588f5e0bc7b4ab407c1ae99bd5c1, type: 3}
      propertyPath: m_LocalScale.x
      value: 1
      objectReference: {fileID: 0}
    - target: {fileID: -2364307010229973598, guid: dde2588f5e0bc7b4ab407c1ae99bd5c1, type: 3}
      propertyPath: m_LocalScale.y
      value: 1
      objectReference: {fileID: 0}
    - target: {fileID: -2364307010229973598, guid: dde2588f5e0bc7b4ab407c1ae99bd5c1, type: 3}
      propertyPath: m_LocalPosition.x
      value: 0
      objectReference: {fileID: 0}
    - target: {fileID: -2364307010229973598, guid: dde2588f5e0bc7b4ab407c1ae99bd5c1, type: 3}
      propertyPath: m_LocalPosition.y
      value: 0
      objectReference: {fileID: 0}
    - target: {fileID: -2364307010229973598, guid: dde2588f5e0bc7b4ab407c1ae99bd5c1, type: 3}
      propertyPath: m_LocalPosition.z
      value: 0
      objectReference: {fileID: 0}
    - target: {fileID: -2364307010229973598, guid: dde2588f5e0bc7b4ab407c1ae99bd5c1, type: 3}
      propertyPath: m_LocalRotation.w
      value: 1
      objectReference: {fileID: 0}
    - target: {fileID: -2364307010229973598, guid: dde2588f5e0bc7b4ab407c1ae99bd5c1, type: 3}
      propertyPath: m_LocalRotation.x
      value: -0
      objectReference: {fileID: 0}
    - target: {fileID: -2364307010229973598, guid: dde2588f5e0bc7b4ab407c1ae99bd5c1, type: 3}
      propertyPath: m_LocalRotation.y
      value: -0
      objectReference: {fileID: 0}
    - target: {fileID: -2364307010229973598, guid: dde2588f5e0bc7b4ab407c1ae99bd5c1, type: 3}
      propertyPath: m_LocalRotation.z
      value: -0
      objectReference: {fileID: 0}
    - target: {fileID: -2364307010229973598, guid: dde2588f5e0bc7b4ab407c1ae99bd5c1, type: 3}
      propertyPath: m_LocalEulerAnglesHint.x
      value: 0
      objectReference: {fileID: 0}
    - target: {fileID: -2364307010229973598, guid: dde2588f5e0bc7b4ab407c1ae99bd5c1, type: 3}
      propertyPath: m_LocalEulerAnglesHint.y
      value: 0
      objectReference: {fileID: 0}
    - target: {fileID: -2364307010229973598, guid: dde2588f5e0bc7b4ab407c1ae99bd5c1, type: 3}
      propertyPath: m_LocalEulerAnglesHint.z
      value: 0
      objectReference: {fileID: 0}
    - target: {fileID: -1992427793899859165, guid: dde2588f5e0bc7b4ab407c1ae99bd5c1, type: 3}
      propertyPath: m_Color.b
      value: 1
      objectReference: {fileID: 0}
    - target: {fileID: -1992427793899859165, guid: dde2588f5e0bc7b4ab407c1ae99bd5c1, type: 3}
      propertyPath: m_Color.g
      value: 1
      objectReference: {fileID: 0}
    - target: {fileID: -1992427793899859165, guid: dde2588f5e0bc7b4ab407c1ae99bd5c1, type: 3}
      propertyPath: m_Color.r
      value: 1
      objectReference: {fileID: 0}
    - target: {fileID: -1956151294300230163, guid: dde2588f5e0bc7b4ab407c1ae99bd5c1, type: 3}
      propertyPath: m_Bounds.m_Center.x
      value: 0.0023551732
      objectReference: {fileID: 0}
    - target: {fileID: -1956151294300230163, guid: dde2588f5e0bc7b4ab407c1ae99bd5c1, type: 3}
      propertyPath: m_Bounds.m_Center.y
      value: -0.04630506
      objectReference: {fileID: 0}
    - target: {fileID: -1956151294300230163, guid: dde2588f5e0bc7b4ab407c1ae99bd5c1, type: 3}
      propertyPath: m_Bounds.m_Extent.x
      value: 0.15764503
      objectReference: {fileID: 0}
    - target: {fileID: -1849224978791615360, guid: dde2588f5e0bc7b4ab407c1ae99bd5c1, type: 3}
      propertyPath: m_Color.b
      value: 1
      objectReference: {fileID: 0}
    - target: {fileID: -1849224978791615360, guid: dde2588f5e0bc7b4ab407c1ae99bd5c1, type: 3}
      propertyPath: m_Color.g
      value: 1
      objectReference: {fileID: 0}
    - target: {fileID: -1849224978791615360, guid: dde2588f5e0bc7b4ab407c1ae99bd5c1, type: 3}
      propertyPath: m_Color.r
      value: 1
      objectReference: {fileID: 0}
    - target: {fileID: -1423065433164063525, guid: dde2588f5e0bc7b4ab407c1ae99bd5c1, type: 3}
      propertyPath: m_Bounds.m_Center.x
      value: -0.0013498068
      objectReference: {fileID: 0}
    - target: {fileID: -1423065433164063525, guid: dde2588f5e0bc7b4ab407c1ae99bd5c1, type: 3}
      propertyPath: m_Bounds.m_Center.y
      value: 0.06377527
      objectReference: {fileID: 0}
    - target: {fileID: -1423065433164063525, guid: dde2588f5e0bc7b4ab407c1ae99bd5c1, type: 3}
      propertyPath: m_Bounds.m_Extent.x
      value: 0.61864996
      objectReference: {fileID: 0}
    - target: {fileID: -1423065433164063525, guid: dde2588f5e0bc7b4ab407c1ae99bd5c1, type: 3}
      propertyPath: m_Bounds.m_Extent.y
      value: 0.44368476
      objectReference: {fileID: 0}
    - target: {fileID: -1412640778794251977, guid: dde2588f5e0bc7b4ab407c1ae99bd5c1, type: 3}
      propertyPath: m_LocalPosition.x
      value: 0.78250337
      objectReference: {fileID: 0}
    - target: {fileID: -1412640778794251977, guid: dde2588f5e0bc7b4ab407c1ae99bd5c1, type: 3}
      propertyPath: m_LocalPosition.y
      value: 0.00000058990366
      objectReference: {fileID: 0}
    - target: {fileID: -1412640778794251977, guid: dde2588f5e0bc7b4ab407c1ae99bd5c1, type: 3}
      propertyPath: m_LocalRotation.w
      value: 0.68030983
      objectReference: {fileID: 0}
    - target: {fileID: -1412640778794251977, guid: dde2588f5e0bc7b4ab407c1ae99bd5c1, type: 3}
      propertyPath: m_LocalRotation.x
      value: 0
      objectReference: {fileID: 0}
    - target: {fileID: -1412640778794251977, guid: dde2588f5e0bc7b4ab407c1ae99bd5c1, type: 3}
      propertyPath: m_LocalRotation.y
      value: 0
      objectReference: {fileID: 0}
    - target: {fileID: -1412640778794251977, guid: dde2588f5e0bc7b4ab407c1ae99bd5c1, type: 3}
      propertyPath: m_LocalRotation.z
      value: -0.7329247
      objectReference: {fileID: 0}
    - target: {fileID: -1412640778794251977, guid: dde2588f5e0bc7b4ab407c1ae99bd5c1, type: 3}
      propertyPath: m_LocalEulerAnglesHint.z
      value: 0
      objectReference: {fileID: 0}
    - target: {fileID: -1091279022849889471, guid: dde2588f5e0bc7b4ab407c1ae99bd5c1, type: 3}
      propertyPath: m_Color.b
      value: 1
      objectReference: {fileID: 0}
    - target: {fileID: -1091279022849889471, guid: dde2588f5e0bc7b4ab407c1ae99bd5c1, type: 3}
      propertyPath: m_Color.g
      value: 1
      objectReference: {fileID: 0}
    - target: {fileID: -1091279022849889471, guid: dde2588f5e0bc7b4ab407c1ae99bd5c1, type: 3}
      propertyPath: m_Color.r
      value: 1
      objectReference: {fileID: 0}
    - target: {fileID: -977232486182366192, guid: dde2588f5e0bc7b4ab407c1ae99bd5c1, type: 3}
      propertyPath: m_Color.b
      value: 1
      objectReference: {fileID: 0}
    - target: {fileID: -977232486182366192, guid: dde2588f5e0bc7b4ab407c1ae99bd5c1, type: 3}
      propertyPath: m_Color.g
      value: 1
      objectReference: {fileID: 0}
    - target: {fileID: -977232486182366192, guid: dde2588f5e0bc7b4ab407c1ae99bd5c1, type: 3}
      propertyPath: m_Color.r
      value: 1
      objectReference: {fileID: 0}
    - target: {fileID: -756606981519664174, guid: dde2588f5e0bc7b4ab407c1ae99bd5c1, type: 3}
      propertyPath: m_Color.b
      value: 1
      objectReference: {fileID: 0}
    - target: {fileID: -756606981519664174, guid: dde2588f5e0bc7b4ab407c1ae99bd5c1, type: 3}
      propertyPath: m_Color.g
      value: 1
      objectReference: {fileID: 0}
    - target: {fileID: -756606981519664174, guid: dde2588f5e0bc7b4ab407c1ae99bd5c1, type: 3}
      propertyPath: m_Color.r
      value: 1
      objectReference: {fileID: 0}
    - target: {fileID: -453562347444798952, guid: dde2588f5e0bc7b4ab407c1ae99bd5c1, type: 3}
      propertyPath: m_Name
      value: Skeletal
      objectReference: {fileID: 0}
    - target: {fileID: 100660877248793666, guid: dde2588f5e0bc7b4ab407c1ae99bd5c1, type: 3}
      propertyPath: m_Bounds.m_Center.x
      value: -0.00091969967
      objectReference: {fileID: 0}
    - target: {fileID: 100660877248793666, guid: dde2588f5e0bc7b4ab407c1ae99bd5c1, type: 3}
      propertyPath: m_Bounds.m_Center.y
      value: 0.03492996
      objectReference: {fileID: 0}
    - target: {fileID: 100660877248793666, guid: dde2588f5e0bc7b4ab407c1ae99bd5c1, type: 3}
      propertyPath: m_Bounds.m_Extent.x
      value: 0.25408
      objectReference: {fileID: 0}
    - target: {fileID: 100660877248793666, guid: dde2588f5e0bc7b4ab407c1ae99bd5c1, type: 3}
      propertyPath: m_Bounds.m_Extent.y
      value: 0.34750992
      objectReference: {fileID: 0}
    - target: {fileID: 196839315414125986, guid: dde2588f5e0bc7b4ab407c1ae99bd5c1, type: 3}
      propertyPath: m_Color.b
      value: 1
      objectReference: {fileID: 0}
    - target: {fileID: 196839315414125986, guid: dde2588f5e0bc7b4ab407c1ae99bd5c1, type: 3}
      propertyPath: m_Color.g
      value: 1
      objectReference: {fileID: 0}
    - target: {fileID: 196839315414125986, guid: dde2588f5e0bc7b4ab407c1ae99bd5c1, type: 3}
      propertyPath: m_Color.r
      value: 1
      objectReference: {fileID: 0}
    - target: {fileID: 1059018441201747718, guid: dde2588f5e0bc7b4ab407c1ae99bd5c1, type: 3}
      propertyPath: m_Bounds.m_Center.x
      value: 0.0018050969
      objectReference: {fileID: 0}
    - target: {fileID: 1059018441201747718, guid: dde2588f5e0bc7b4ab407c1ae99bd5c1, type: 3}
      propertyPath: m_Bounds.m_Center.y
      value: 0.0010549426
      objectReference: {fileID: 0}
    - target: {fileID: 1059018441201747718, guid: dde2588f5e0bc7b4ab407c1ae99bd5c1, type: 3}
      propertyPath: m_Bounds.m_Extent.x
      value: 0.34819514
      objectReference: {fileID: 0}
    - target: {fileID: 1145339335970338896, guid: dde2588f5e0bc7b4ab407c1ae99bd5c1, type: 3}
      propertyPath: m_Bounds.m_Center.x
      value: -0.0062298924
      objectReference: {fileID: 0}
    - target: {fileID: 1145339335970338896, guid: dde2588f5e0bc7b4ab407c1ae99bd5c1, type: 3}
      propertyPath: m_Bounds.m_Center.y
      value: 0.0022354424
      objectReference: {fileID: 0}
    - target: {fileID: 1145339335970338896, guid: dde2588f5e0bc7b4ab407c1ae99bd5c1, type: 3}
      propertyPath: m_Bounds.m_Extent.x
      value: 0.2254701
      objectReference: {fileID: 0}
    - target: {fileID: 1145339335970338896, guid: dde2588f5e0bc7b4ab407c1ae99bd5c1, type: 3}
      propertyPath: m_Bounds.m_Extent.y
      value: 0.35276502
      objectReference: {fileID: 0}
    - target: {fileID: 2012014427841516378, guid: dde2588f5e0bc7b4ab407c1ae99bd5c1, type: 3}
      propertyPath: m_Color.b
      value: 1
      objectReference: {fileID: 0}
    - target: {fileID: 2012014427841516378, guid: dde2588f5e0bc7b4ab407c1ae99bd5c1, type: 3}
      propertyPath: m_Color.g
      value: 1
      objectReference: {fileID: 0}
    - target: {fileID: 2012014427841516378, guid: dde2588f5e0bc7b4ab407c1ae99bd5c1, type: 3}
      propertyPath: m_Color.r
      value: 1
      objectReference: {fileID: 0}
    - target: {fileID: 3142915378864389283, guid: dde2588f5e0bc7b4ab407c1ae99bd5c1, type: 3}
      propertyPath: m_LocalRotation.w
      value: 0.074342825
      objectReference: {fileID: 0}
    - target: {fileID: 3142915378864389283, guid: dde2588f5e0bc7b4ab407c1ae99bd5c1, type: 3}
      propertyPath: m_LocalRotation.x
      value: 0
      objectReference: {fileID: 0}
    - target: {fileID: 3142915378864389283, guid: dde2588f5e0bc7b4ab407c1ae99bd5c1, type: 3}
      propertyPath: m_LocalRotation.z
      value: -0.9972328
      objectReference: {fileID: 0}
    - target: {fileID: 3142915378864389283, guid: dde2588f5e0bc7b4ab407c1ae99bd5c1, type: 3}
      propertyPath: m_LocalEulerAnglesHint.z
      value: 0
      objectReference: {fileID: 0}
    - target: {fileID: 3858627199554339896, guid: dde2588f5e0bc7b4ab407c1ae99bd5c1, type: 3}
      propertyPath: m_LocalRotation.w
      value: 0.68904036
      objectReference: {fileID: 0}
    - target: {fileID: 3858627199554339896, guid: dde2588f5e0bc7b4ab407c1ae99bd5c1, type: 3}
      propertyPath: m_LocalRotation.x
      value: 0
      objectReference: {fileID: 0}
    - target: {fileID: 3858627199554339896, guid: dde2588f5e0bc7b4ab407c1ae99bd5c1, type: 3}
      propertyPath: m_LocalRotation.y
      value: 0
      objectReference: {fileID: 0}
    - target: {fileID: 3858627199554339896, guid: dde2588f5e0bc7b4ab407c1ae99bd5c1, type: 3}
      propertyPath: m_LocalRotation.z
      value: -0.724723
      objectReference: {fileID: 0}
    - target: {fileID: 3858627199554339896, guid: dde2588f5e0bc7b4ab407c1ae99bd5c1, type: 3}
      propertyPath: m_LocalEulerAnglesHint.z
      value: 0
      objectReference: {fileID: 0}
    - target: {fileID: 3940090676233888372, guid: dde2588f5e0bc7b4ab407c1ae99bd5c1, type: 3}
      propertyPath: m_LocalRotation.w
      value: 0.9995556
      objectReference: {fileID: 0}
    - target: {fileID: 3940090676233888372, guid: dde2588f5e0bc7b4ab407c1ae99bd5c1, type: 3}
      propertyPath: m_LocalRotation.x
      value: 0
      objectReference: {fileID: 0}
    - target: {fileID: 3940090676233888372, guid: dde2588f5e0bc7b4ab407c1ae99bd5c1, type: 3}
      propertyPath: m_LocalRotation.y
      value: 0
      objectReference: {fileID: 0}
    - target: {fileID: 3940090676233888372, guid: dde2588f5e0bc7b4ab407c1ae99bd5c1, type: 3}
      propertyPath: m_LocalRotation.z
      value: -0.02981142
      objectReference: {fileID: 0}
    - target: {fileID: 3940090676233888372, guid: dde2588f5e0bc7b4ab407c1ae99bd5c1, type: 3}
      propertyPath: m_LocalEulerAnglesHint.z
      value: 0
      objectReference: {fileID: 0}
    - target: {fileID: 4559618082895213522, guid: dde2588f5e0bc7b4ab407c1ae99bd5c1, type: 3}
      propertyPath: m_Color.b
      value: 1
      objectReference: {fileID: 0}
    - target: {fileID: 4559618082895213522, guid: dde2588f5e0bc7b4ab407c1ae99bd5c1, type: 3}
      propertyPath: m_Color.g
      value: 1
      objectReference: {fileID: 0}
    - target: {fileID: 4559618082895213522, guid: dde2588f5e0bc7b4ab407c1ae99bd5c1, type: 3}
      propertyPath: m_Color.r
      value: 1
      objectReference: {fileID: 0}
    - target: {fileID: 4866933813603293560, guid: dde2588f5e0bc7b4ab407c1ae99bd5c1, type: 3}
      propertyPath: m_LocalPosition.x
      value: 0.3455528
      objectReference: {fileID: 0}
    - target: {fileID: 4866933813603293560, guid: dde2588f5e0bc7b4ab407c1ae99bd5c1, type: 3}
      propertyPath: m_LocalPosition.y
      value: -0.000000105811665
      objectReference: {fileID: 0}
    - target: {fileID: 4866933813603293560, guid: dde2588f5e0bc7b4ab407c1ae99bd5c1, type: 3}
      propertyPath: m_LocalRotation.w
      value: 0.99938345
      objectReference: {fileID: 0}
    - target: {fileID: 4866933813603293560, guid: dde2588f5e0bc7b4ab407c1ae99bd5c1, type: 3}
      propertyPath: m_LocalRotation.x
      value: 0
      objectReference: {fileID: 0}
    - target: {fileID: 4866933813603293560, guid: dde2588f5e0bc7b4ab407c1ae99bd5c1, type: 3}
      propertyPath: m_LocalRotation.y
      value: 0
      objectReference: {fileID: 0}
    - target: {fileID: 4866933813603293560, guid: dde2588f5e0bc7b4ab407c1ae99bd5c1, type: 3}
      propertyPath: m_LocalRotation.z
      value: 0.035111297
      objectReference: {fileID: 0}
    - target: {fileID: 4866933813603293560, guid: dde2588f5e0bc7b4ab407c1ae99bd5c1, type: 3}
      propertyPath: m_LocalEulerAnglesHint.z
      value: 0
      objectReference: {fileID: 0}
    - target: {fileID: 4975804424508950123, guid: dde2588f5e0bc7b4ab407c1ae99bd5c1, type: 3}
      propertyPath: m_LocalRotation.w
      value: 0.9995734
      objectReference: {fileID: 0}
    - target: {fileID: 4975804424508950123, guid: dde2588f5e0bc7b4ab407c1ae99bd5c1, type: 3}
      propertyPath: m_LocalRotation.x
      value: 0
      objectReference: {fileID: 0}
    - target: {fileID: 4975804424508950123, guid: dde2588f5e0bc7b4ab407c1ae99bd5c1, type: 3}
      propertyPath: m_LocalRotation.y
      value: 0
      objectReference: {fileID: 0}
    - target: {fileID: 4975804424508950123, guid: dde2588f5e0bc7b4ab407c1ae99bd5c1, type: 3}
      propertyPath: m_LocalRotation.z
      value: 0.029206097
      objectReference: {fileID: 0}
    - target: {fileID: 4975804424508950123, guid: dde2588f5e0bc7b4ab407c1ae99bd5c1, type: 3}
      propertyPath: m_LocalEulerAnglesHint.z
      value: 0
      objectReference: {fileID: 0}
    - target: {fileID: 5175597729210132708, guid: dde2588f5e0bc7b4ab407c1ae99bd5c1, type: 3}
      propertyPath: m_Bounds.m_Center.x
      value: -0.0013097972
      objectReference: {fileID: 0}
    - target: {fileID: 5175597729210132708, guid: dde2588f5e0bc7b4ab407c1ae99bd5c1, type: 3}
      propertyPath: m_Bounds.m_Center.y
      value: 0
      objectReference: {fileID: 0}
    - target: {fileID: 5175597729210132708, guid: dde2588f5e0bc7b4ab407c1ae99bd5c1, type: 3}
      propertyPath: m_Bounds.m_Extent.x
      value: 0.20794004
      objectReference: {fileID: 0}
    - target: {fileID: 5555451573762734696, guid: dde2588f5e0bc7b4ab407c1ae99bd5c1, type: 3}
      propertyPath: m_Color.b
      value: 1
      objectReference: {fileID: 0}
    - target: {fileID: 5555451573762734696, guid: dde2588f5e0bc7b4ab407c1ae99bd5c1, type: 3}
      propertyPath: m_Color.g
      value: 1
      objectReference: {fileID: 0}
    - target: {fileID: 5555451573762734696, guid: dde2588f5e0bc7b4ab407c1ae99bd5c1, type: 3}
      propertyPath: m_Color.r
      value: 1
      objectReference: {fileID: 0}
    - target: {fileID: 5827009428822136730, guid: dde2588f5e0bc7b4ab407c1ae99bd5c1, type: 3}
      propertyPath: m_Bounds.m_Center.x
      value: -0.0014197826
      objectReference: {fileID: 0}
    - target: {fileID: 5827009428822136730, guid: dde2588f5e0bc7b4ab407c1ae99bd5c1, type: 3}
      propertyPath: m_Bounds.m_Center.y
      value: 0
      objectReference: {fileID: 0}
    - target: {fileID: 5827009428822136730, guid: dde2588f5e0bc7b4ab407c1ae99bd5c1, type: 3}
      propertyPath: m_Bounds.m_Extent.x
      value: 0.51800996
      objectReference: {fileID: 0}
    - target: {fileID: 5827009428822136730, guid: dde2588f5e0bc7b4ab407c1ae99bd5c1, type: 3}
      propertyPath: m_Bounds.m_Extent.y
      value: 0.575
      objectReference: {fileID: 0}
    - target: {fileID: 5855602224620149045, guid: dde2588f5e0bc7b4ab407c1ae99bd5c1, type: 3}
      propertyPath: m_LocalPosition.x
      value: 0.39453995
      objectReference: {fileID: 0}
    - target: {fileID: 5855602224620149045, guid: dde2588f5e0bc7b4ab407c1ae99bd5c1, type: 3}
      propertyPath: m_LocalPosition.y
      value: 0.000000057905126
      objectReference: {fileID: 0}
    - target: {fileID: 5855602224620149045, guid: dde2588f5e0bc7b4ab407c1ae99bd5c1, type: 3}
      propertyPath: m_LocalRotation.w
      value: 0.9993623
      objectReference: {fileID: 0}
    - target: {fileID: 5855602224620149045, guid: dde2588f5e0bc7b4ab407c1ae99bd5c1, type: 3}
      propertyPath: m_LocalRotation.x
      value: 0
      objectReference: {fileID: 0}
    - target: {fileID: 5855602224620149045, guid: dde2588f5e0bc7b4ab407c1ae99bd5c1, type: 3}
      propertyPath: m_LocalRotation.y
      value: 0
      objectReference: {fileID: 0}
    - target: {fileID: 5855602224620149045, guid: dde2588f5e0bc7b4ab407c1ae99bd5c1, type: 3}
      propertyPath: m_LocalRotation.z
      value: 0.03570844
      objectReference: {fileID: 0}
    - target: {fileID: 5855602224620149045, guid: dde2588f5e0bc7b4ab407c1ae99bd5c1, type: 3}
      propertyPath: m_LocalEulerAnglesHint.z
      value: 0
      objectReference: {fileID: 0}
    - target: {fileID: 5889504717734636218, guid: dde2588f5e0bc7b4ab407c1ae99bd5c1, type: 3}
      propertyPath: m_Bounds.m_Center.x
      value: -0.00004479289
      objectReference: {fileID: 0}
    - target: {fileID: 5889504717734636218, guid: dde2588f5e0bc7b4ab407c1ae99bd5c1, type: 3}
      propertyPath: m_Bounds.m_Center.y
      value: 0.00017046928
      objectReference: {fileID: 0}
    - target: {fileID: 5889504717734636218, guid: dde2588f5e0bc7b4ab407c1ae99bd5c1, type: 3}
      propertyPath: m_Bounds.m_Extent.x
      value: 0.24995503
      objectReference: {fileID: 0}
    - target: {fileID: 6429290395889825324, guid: dde2588f5e0bc7b4ab407c1ae99bd5c1, type: 3}
      propertyPath: m_LocalPosition.x
      value: 0.05447435
      objectReference: {fileID: 0}
    - target: {fileID: 6429290395889825324, guid: dde2588f5e0bc7b4ab407c1ae99bd5c1, type: 3}
      propertyPath: m_LocalPosition.y
      value: 1.567821
      objectReference: {fileID: 0}
    - target: {fileID: 6429290395889825324, guid: dde2588f5e0bc7b4ab407c1ae99bd5c1, type: 3}
      propertyPath: m_LocalRotation.w
      value: 0.72650385
      objectReference: {fileID: 0}
    - target: {fileID: 6429290395889825324, guid: dde2588f5e0bc7b4ab407c1ae99bd5c1, type: 3}
      propertyPath: m_LocalRotation.x
      value: 0
      objectReference: {fileID: 0}
    - target: {fileID: 6429290395889825324, guid: dde2588f5e0bc7b4ab407c1ae99bd5c1, type: 3}
      propertyPath: m_LocalRotation.y
      value: 0
      objectReference: {fileID: 0}
    - target: {fileID: 6429290395889825324, guid: dde2588f5e0bc7b4ab407c1ae99bd5c1, type: 3}
      propertyPath: m_LocalRotation.z
      value: 0.6871624
      objectReference: {fileID: 0}
    - target: {fileID: 6429290395889825324, guid: dde2588f5e0bc7b4ab407c1ae99bd5c1, type: 3}
      propertyPath: m_LocalEulerAnglesHint.z
      value: 0
      objectReference: {fileID: 0}
    - target: {fileID: 6479264449953772297, guid: dde2588f5e0bc7b4ab407c1ae99bd5c1, type: 3}
      propertyPath: m_Color.b
      value: 1
      objectReference: {fileID: 0}
    - target: {fileID: 6479264449953772297, guid: dde2588f5e0bc7b4ab407c1ae99bd5c1, type: 3}
      propertyPath: m_Color.g
      value: 1
      objectReference: {fileID: 0}
    - target: {fileID: 6479264449953772297, guid: dde2588f5e0bc7b4ab407c1ae99bd5c1, type: 3}
      propertyPath: m_Color.r
      value: 1
      objectReference: {fileID: 0}
    - target: {fileID: 7023663073104404348, guid: dde2588f5e0bc7b4ab407c1ae99bd5c1, type: 3}
      propertyPath: m_LocalPosition.x
      value: 0.02876928
      objectReference: {fileID: 0}
    - target: {fileID: 7023663073104404348, guid: dde2588f5e0bc7b4ab407c1ae99bd5c1, type: 3}
      propertyPath: m_LocalPosition.y
      value: 0.20281589
      objectReference: {fileID: 0}
    - target: {fileID: 7023663073104404348, guid: dde2588f5e0bc7b4ab407c1ae99bd5c1, type: 3}
      propertyPath: m_LocalRotation.w
      value: 0.022254374
      objectReference: {fileID: 0}
    - target: {fileID: 7023663073104404348, guid: dde2588f5e0bc7b4ab407c1ae99bd5c1, type: 3}
      propertyPath: m_LocalRotation.x
      value: 0
      objectReference: {fileID: 0}
    - target: {fileID: 7023663073104404348, guid: dde2588f5e0bc7b4ab407c1ae99bd5c1, type: 3}
      propertyPath: m_LocalRotation.z
      value: 0.9997524
      objectReference: {fileID: 0}
    - target: {fileID: 7023663073104404348, guid: dde2588f5e0bc7b4ab407c1ae99bd5c1, type: 3}
      propertyPath: m_LocalEulerAnglesHint.z
      value: 0
      objectReference: {fileID: 0}
    - target: {fileID: 7356889023244584863, guid: dde2588f5e0bc7b4ab407c1ae99bd5c1, type: 3}
      propertyPath: m_Bounds.m_Center.x
      value: -0.0009447634
      objectReference: {fileID: 0}
    - target: {fileID: 7356889023244584863, guid: dde2588f5e0bc7b4ab407c1ae99bd5c1, type: 3}
      propertyPath: m_Bounds.m_Center.y
      value: -0.00999999
      objectReference: {fileID: 0}
    - target: {fileID: 7356889023244584863, guid: dde2588f5e0bc7b4ab407c1ae99bd5c1, type: 3}
      propertyPath: m_Bounds.m_Extent.x
      value: 0.20400494
      objectReference: {fileID: 0}
    - target: {fileID: 7356889023244584863, guid: dde2588f5e0bc7b4ab407c1ae99bd5c1, type: 3}
      propertyPath: m_Bounds.m_Extent.y
      value: 0.5400001
      objectReference: {fileID: 0}
    - target: {fileID: 7837230829916389342, guid: dde2588f5e0bc7b4ab407c1ae99bd5c1, type: 3}
      propertyPath: m_Color.b
      value: 1
      objectReference: {fileID: 0}
    - target: {fileID: 7837230829916389342, guid: dde2588f5e0bc7b4ab407c1ae99bd5c1, type: 3}
      propertyPath: m_Color.g
      value: 1
      objectReference: {fileID: 0}
    - target: {fileID: 7837230829916389342, guid: dde2588f5e0bc7b4ab407c1ae99bd5c1, type: 3}
      propertyPath: m_Color.r
      value: 1
      objectReference: {fileID: 0}
    - target: {fileID: 8296593875092308249, guid: dde2588f5e0bc7b4ab407c1ae99bd5c1, type: 3}
      propertyPath: m_Color.b
      value: 1
      objectReference: {fileID: 0}
    - target: {fileID: 8296593875092308249, guid: dde2588f5e0bc7b4ab407c1ae99bd5c1, type: 3}
      propertyPath: m_Color.g
      value: 1
      objectReference: {fileID: 0}
    - target: {fileID: 8296593875092308249, guid: dde2588f5e0bc7b4ab407c1ae99bd5c1, type: 3}
      propertyPath: m_Color.r
      value: 1
      objectReference: {fileID: 0}
    - target: {fileID: 8545746275247189623, guid: dde2588f5e0bc7b4ab407c1ae99bd5c1, type: 3}
      propertyPath: m_LocalPosition.x
      value: -0.072321385
      objectReference: {fileID: 0}
    - target: {fileID: 8545746275247189623, guid: dde2588f5e0bc7b4ab407c1ae99bd5c1, type: 3}
      propertyPath: m_LocalPosition.y
      value: 1.6728711
      objectReference: {fileID: 0}
    - target: {fileID: 8545746275247189623, guid: dde2588f5e0bc7b4ab407c1ae99bd5c1, type: 3}
      propertyPath: m_LocalRotation.w
      value: 0.2274332
      objectReference: {fileID: 0}
    - target: {fileID: 8545746275247189623, guid: dde2588f5e0bc7b4ab407c1ae99bd5c1, type: 3}
      propertyPath: m_LocalRotation.x
      value: 0
      objectReference: {fileID: 0}
    - target: {fileID: 8545746275247189623, guid: dde2588f5e0bc7b4ab407c1ae99bd5c1, type: 3}
      propertyPath: m_LocalRotation.z
      value: -0.9737937
      objectReference: {fileID: 0}
    - target: {fileID: 8545746275247189623, guid: dde2588f5e0bc7b4ab407c1ae99bd5c1, type: 3}
      propertyPath: m_LocalEulerAnglesHint.z
      value: 0
      objectReference: {fileID: 0}
    - target: {fileID: 9212018261697539226, guid: dde2588f5e0bc7b4ab407c1ae99bd5c1, type: 3}
      propertyPath: m_Bounds.m_Center.x
      value: 0.0002053082
      objectReference: {fileID: 0}
    - target: {fileID: 9212018261697539226, guid: dde2588f5e0bc7b4ab407c1ae99bd5c1, type: 3}
      propertyPath: m_Bounds.m_Center.y
      value: -0.0000050365925
      objectReference: {fileID: 0}
    - target: {fileID: 9212018261697539226, guid: dde2588f5e0bc7b4ab407c1ae99bd5c1, type: 3}
      propertyPath: m_Bounds.m_Extent.x
      value: 0.24881497
      objectReference: {fileID: 0}
    m_RemovedComponents: []
  m_SourcePrefab: {fileID: -3791651542596152443, guid: dde2588f5e0bc7b4ab407c1ae99bd5c1, type: 3}
--- !u!4 &7478621442821964538 stripped
Transform:
  m_CorrespondingSourceObject: {fileID: -2364307010229973598, guid: dde2588f5e0bc7b4ab407c1ae99bd5c1, type: 3}
  m_PrefabInstance: {fileID: 4105362946132217688}
  m_PrefabAsset: {fileID: 0}
